{
  "project_info": {
    "project_number": "247766883451",
    "project_id": "shopping-demo-1308"
  },
  "client": [
    {
      "client_info": {
        "mobilesdk_app_id": "1:247766883451:android:0ebc7ce54cf3ea96",
        "android_client_info": {
          "package_name": "juspay.in.totp"
        }
      },
      "oauth_client": [],
      "api_key": [
        {
          "current_key": "AIzaSyAPlPM38LWcqYr_5BM2JVrPjrsfnvV18lE"
        }
      ],
      "services": {
        "analytics_service": {
          "status": 1
        },
        "appinvite_service": {
          "status": 1,
          "other_platform_oauth_client": []
        },
        "ads_service": {
          "status": 1
        }
      }
    },
    {
      "client_info": {
        "mobilesdk_app_id": "1:247766883451:android:e97a39a4d79549d2",
        "android_client_info": {
          "package_name": "juspay.in.hdfc"
        }
      },
      "oauth_client": [],
      "api_key": [
        {
          "current_key": "AIzaSyAPlPM38LWcqYr_5BM2JVrPjrsfnvV18lE"
        }
      ],
      "services": {
        "analytics_service": {
          "status": 1
        },
        "appinvite_service": {
          "status": 1,
          "other_platform_oauth_client": []
        },
        "ads_service": {
          "status": 1
        }
      }
    }
  ],
  "configuration_version": "1"
}